{
	"variables": [],
	"info": {
		"name": "Star Wars",
		"_postman_id": "eae0f857-7919-6ff7-8c94-dd63deab6401",
		"description": "",
		"schema": "https://schema.getpostman.com/json/collection/v2.0.0/collection.json"
	},
	"item": [
		{
			"name": "Obtener peliculas",
			"request": {
				"url": "",
				"method": "GET",
				"header": [],
				"body": {},
				"description": ""
			},
			"response": []
		},
		{
			"name": "Obtener pelicula 1",
			"request": {
				"url": "https://swapi.dev/api/films/1",
				"method": "GET",
				"header": [],
				"body": {},
				"description": ""
			},
			"response": []
		},
		{
			"name": "Obtener planetas",
			"request": {
				"url": "https://swapi.dev/api/planets/",
				"method": "GET",
				"header": [],
				"body": {},
				"description": ""
			},
			"response": []
		}
	]
}